{
  "agencies":[
    {
      "name":"GORAN GATES ESTATE AGENTS LTD",
      "referenceNo":"UL00000001",
      "companyNo":"06093839",
      "vatRegNo":"1234",
      "address":{
        "dwelling":"421",
        "nameOrNumber":"",
        "street":"ALEXANDRA AVENUE",
        "locality":"RAYNERS LANE",
        "town":"HARROW",
        "county":"MIDDX",
        "postcode":"HA2 9SG"
      },
      "settings":{
        "brochures":[
          {
            "template":"goran-gates-0003",
            "isDefault":true
          },
          {
            "template":"goran-gates-0004",
            "isDefault":false
          }
        ],
        "areas":[]
      },
      "status":"Active"
    }
  ]
}